<svg viewBox="0 0 67 81" fill="none" xmlns="http://www.w3.org/2000/svg">
<path fill-rule="evenodd" clip-rule="evenodd" d="M45.6689 59.8861C46.6456 59.7471 50.3486 57.5923 51.3076 56.9582C53.4244 55.5582 54.3183 54.7582 56.0617 53.1494C57.39 51.9236 58.8538 50.2256 60.0232 48.5459C61.2293 46.8345 62.2789 45.0179 63.1594 43.1183C65.0505 39.0678 66.1602 34.1375 66.0904 28.9064C66.0371 24.9733 65.3002 21.6284 64.0487 18.0888C63.8365 17.4887 63.0134 15.4494 62.7432 15.1263C62.3258 15.0928 62.3528 15.267 62.2074 15.5902L53.5903 34.0754C52.8194 35.7217 53.0856 35.3393 53.585 37.1733C54.6468 41.0719 54.5692 45.1933 53.3616 49.0491C52.1539 52.9048 49.8667 56.3334 46.771 58.9283C46.5764 59.0908 46.4228 59.214 46.2194 59.3741C45.9122 59.6157 45.7428 59.6562 45.6689 59.8861Z" fill="black"/>
<path fill-rule="evenodd" clip-rule="evenodd" d="M20.7869 59.764C20.5395 59.4942 19.9908 59.1341 19.6965 58.8801C19.3325 58.5646 18.9931 58.252 18.6467 57.9352C16.687 56.1464 14.8276 53.3639 13.7571 50.7452C11.9927 46.4284 11.6902 41.7551 12.9863 36.9785C13.5995 34.721 13.821 35.6735 13.0549 34.0189C12.6117 33.0617 12.2061 32.2007 11.7652 31.2623C10.893 29.3972 10.0395 27.6007 9.19123 25.7426C8.69354 24.6523 4.22493 14.9566 4.03265 14.7748C3.406 15.3947 1.95516 19.7936 1.63743 20.932C-0.974093 30.311 1.02778 40.7814 6.44839 48.3762C8.91923 51.8367 11.638 54.5288 15.1828 56.886C15.5029 57.0989 20.3777 60.0578 20.788 59.764" fill="black"/>
<path fill-rule="evenodd" clip-rule="evenodd" d="M13.4209 42.1645C13.4209 44.9663 13.7867 47.2121 14.7428 49.642C16.2429 53.4544 18.5531 56.3377 21.8405 58.733C22.616 59.2978 23.459 59.7752 24.3729 60.2444C24.8336 60.4791 26.89 61.4175 27.2793 61.3694L28.1691 56.4204C21.8915 54.1576 17.6937 47.7118 18.522 40.7528C18.7008 39.2543 19.2489 38.1241 19.6856 36.8191C20.1106 35.5481 20.596 34.2906 21.0222 33.0501C21.6476 31.2319 26.3537 18.1655 26.3214 17.8864C26.2974 17.6823 19.9916 4.48216 18.9535 2.25105C18.6932 1.69152 18.3297 1.02524 18.1281 0.497375C17.5055 0.573036 16.4902 1.6704 16.1708 2.15076C15.6965 2.86103 15.3372 3.89916 15.3425 4.97248C15.3483 6.16369 15.7229 6.87748 16.1379 7.76605C17.2517 10.1538 18.4628 12.7966 19.6206 15.1327C20.0262 15.9538 20.3897 16.7344 20.7695 17.5632C21.1177 18.3257 21.1306 18.0723 20.8475 18.9169C19.5502 22.7879 18.0044 27.0108 16.6057 30.9205L13.7867 38.9024C13.5241 39.6689 13.4209 41.2895 13.4209 42.1645Z" fill="black"/>
<path fill-rule="evenodd" clip-rule="evenodd" d="M38.4568 56.4198C38.4351 57.1043 39.1538 60.2181 39.2775 61.3653C40.1333 61.2978 42.467 60.092 43.2214 59.6644C49.4639 56.1453 53.6294 48.7429 53.0696 41.2754C52.8902 38.8947 52.7894 38.6947 52.0731 36.6331L45.8025 18.8553C45.6143 18.2934 45.5035 18.3532 45.7761 17.8101C46.0932 17.1779 46.3969 16.5239 46.704 15.8623C47.9011 13.2816 49.1198 10.7168 50.335 8.17193C51.0073 6.76429 51.6715 5.50974 51.1381 3.60943C50.9501 2.93161 50.6225 2.30067 50.1761 1.75722C49.8865 1.41528 49.077 0.624658 48.5347 0.512047C48.3055 1.09387 47.9861 1.68508 47.7311 2.22232C47.4503 2.81529 47.2035 3.34315 46.9239 3.93729C46.3699 5.10387 45.8347 6.22822 45.2825 7.40183L41.1908 16.04C40.947 16.5374 40.5536 17.2717 40.3801 17.7538C40.2576 18.0928 40.7775 19.2535 40.9153 19.6424L45.575 32.8143C46.3195 34.9006 47.7393 38.5217 47.9831 40.598C48.6502 46.2825 46.1659 51.5916 41.7758 54.6368C40.2734 55.6779 38.6033 56.316 38.4568 56.4198Z" fill="black"/>
<path fill-rule="evenodd" clip-rule="evenodd" d="M26.9714 69.7478L29.5572 70.0053L30.1305 65.573L31.0637 65.6903L30.508 70.0105C30.8087 70.1038 32.4501 70.1278 32.8147 70.0886V65.6463H33.6828L33.6928 70.0874L36.0071 70.0135C36.1103 69.6616 35.571 66.3771 35.5024 65.6797L36.4357 65.5747L36.9908 69.7912C37.0301 69.919 37.0131 69.8721 37.0494 69.9343C37.4164 69.9114 39.2096 69.7888 39.4388 69.7079C39.5695 69.6616 39.5367 69.7138 39.556 69.5666L35.3172 45.3611C35.1138 44.2186 35.2967 44.1881 35.7861 43.4209L38.3584 39.4784C38.5507 39.0555 38.2669 38.6731 37.8261 38.7546C37.4926 38.8162 32.7479 41.042 32.5046 41.2531C31.9905 41.7053 31.9559 42.4109 31.8146 43.1998L27.7827 65.2703C27.6145 66.1882 27.0471 69.0498 26.9726 69.7466" fill="#1A1A18"/>
<path fill-rule="evenodd" clip-rule="evenodd" d="M27.1951 69.6082L29.4109 69.8117L29.9731 65.3923L31.241 65.5278C31.2639 66.0392 31.0575 67.146 30.9825 67.7155C30.9286 68.1261 30.6929 69.5923 30.7416 69.8856L32.6374 69.9249V65.4727H33.8549L33.8678 69.9114L35.824 69.8475L35.3016 65.5419L36.5948 65.3659L37.1546 69.746L39.3353 69.5472C39.3804 69.0111 38.7579 66.0334 38.6272 65.2844L35.6522 48.3124C35.4951 47.3974 34.8426 44.7845 35.1832 44.0514C35.3925 43.5986 37.6201 40.3299 38.1142 39.5317C38.3176 39.2021 38.2684 38.7851 37.7373 38.9722L33.4358 40.9517C31.9703 41.6033 32.2047 42.0314 31.7944 44.2989C31.2821 47.1189 30.7568 49.9142 30.2556 52.73L27.9454 65.3753C27.8176 66.0885 27.6916 66.7665 27.5644 67.4627C27.46 68.0299 27.205 69.0856 27.1968 69.6082" fill="white"/>
<path fill-rule="evenodd" clip-rule="evenodd" d="M5.45924 13.7126C5.48152 14.759 5.86607 15.6341 6.25179 16.4247L8.52684 21.3074C9.67579 23.7121 10.7913 26.267 11.942 28.6236C12.3401 29.4394 12.6807 30.2658 13.0787 31.0659L14.2405 33.4823C14.39 33.2342 15.2295 30.7386 15.4059 30.2483C16.7542 26.5016 16.8515 27.0746 15.1896 23.6159C14.7206 22.6382 14.2071 21.5573 13.7751 20.5725C12.8829 18.5402 11.8658 16.5742 10.9613 14.5314C10.5246 13.5514 10.041 12.5208 9.55562 11.5373C9.32114 11.0593 8.3246 8.71319 8.08367 8.52785C7.84919 8.60293 7.74133 8.82639 7.60357 9.00938C6.45579 10.5343 5.45456 11.4909 5.45924 13.7126Z" fill="#1A1A18"/>
<path fill-rule="evenodd" clip-rule="evenodd" d="M52.4376 33.5182C52.7682 32.9317 53.5051 31.2396 53.8673 30.4818C54.3703 29.4296 54.8205 28.4055 55.3188 27.3533C56.3018 25.2765 57.2228 23.1744 58.207 21.1497C58.7346 20.06 60.8097 15.7755 61.0336 14.8852C61.6451 12.4558 60.4949 10.911 59.1514 9.20656C58.9755 8.98544 58.8114 8.68808 58.5722 8.58661C58.3102 8.74555 55.8921 14.1749 55.6922 14.5884C54.7103 16.6125 53.8468 18.653 52.8749 20.6295L50.7646 25.1416C50.5231 25.6425 50.237 26.1903 50.2317 26.8548C50.2247 27.6284 51.4575 30.7909 51.8455 31.8841C52.0067 32.3399 52.2219 33.1058 52.4388 33.5176" fill="#1A1A18"/>
<path fill-rule="evenodd" clip-rule="evenodd" d="M32.7815 24.3128C29.7619 24.6172 27.3075 27.1246 27.5895 30.5134C27.8374 33.4947 30.5023 35.9768 33.8032 35.6748C36.7489 35.4073 39.2766 32.7821 38.9542 29.4606C38.6687 26.5204 36.0712 23.9791 32.7832 24.311" fill="black"/>
<path fill-rule="evenodd" clip-rule="evenodd" d="M14.2175 33.0489C14.4238 32.599 14.6096 31.9738 14.7761 31.4964C15.2211 30.2207 16.4005 27.4324 16.2264 26.4523C16.1402 25.9667 15.8213 25.3767 15.6173 24.9485C15.3828 24.4617 15.1484 23.9708 14.925 23.4728C13.6002 20.5151 12.1558 17.6153 10.8058 14.627C10.362 13.6446 9.90245 12.6458 9.44697 11.7038L8.25288 9.14547C8.22533 9.08682 8.18957 9.00412 8.15733 8.95133L8.0272 8.7877C7.85766 8.97173 7.69986 9.16625 7.55472 9.37011C6.25394 11.0593 5.10616 12.5731 5.8348 14.9625C6.04877 15.6663 12.3545 29.1562 12.8012 30.053C13.1787 30.8113 13.8757 32.4788 14.2134 33.0442" fill="white"/>
<path fill-rule="evenodd" clip-rule="evenodd" d="M52.4881 33.0307C52.7636 32.2964 53.232 31.4002 53.5761 30.6542L55.779 25.9427C56.1343 25.1509 56.4907 24.3591 56.8735 23.5743C57.6355 22.0054 58.3542 20.44 59.0788 18.8588C59.7453 17.4036 61.0009 15.186 61.0009 13.7713C61.0009 12.5397 60.7277 11.6898 60.1128 10.8171L58.7059 8.94022C58.5805 8.81822 58.7147 8.90796 58.5477 8.82291C58.4416 9.18655 58.0787 9.91794 57.8946 10.2845C57.1912 11.7021 56.5751 13.2042 55.8429 14.6834C54.4601 17.4769 53.1171 20.6506 51.7395 23.487C51.505 23.9673 51.2799 24.4447 51.0677 24.9263C50.1327 27.0442 50.1568 26.6559 51.3051 29.8412C51.4968 30.372 51.6891 30.9228 51.8732 31.443L52.2835 32.6161C52.3042 32.6897 52.3298 32.7618 52.3603 32.8319L52.4031 32.9152C52.4255 32.9581 52.454 32.9976 52.4875 33.0325" fill="white"/>
<path fill-rule="evenodd" clip-rule="evenodd" d="M21.3044 77.1072L22.594 77.1459V75.7207L21.3044 75.7272V77.1072ZM25.3105 74.7711L12.0993 74.7811C12.1386 75.0298 12.5131 75.4374 12.6661 75.7101L13.2758 75.733C13.2682 76.1676 13.3526 76.9729 13.1152 77.2363C12.8613 77.5178 12.0653 77.4785 11.7833 77.2433C12.679 76.5682 12.1069 75.6163 11.6379 75.2192C10.8841 74.5805 10.2897 74.6878 9.24272 74.9389L9.94616 75.8972C10.2821 75.8116 10.9579 75.4585 11.2944 75.7324C11.6631 76.0351 11.1871 76.3717 10.9585 76.4838C10.6654 76.628 10.1613 76.7143 9.93268 76.8357C9.99892 76.9858 10.3987 77.5577 10.5488 77.7061L11.3935 77.4949C11.489 77.7929 11.6485 78.1078 11.4251 78.4163C11.2622 78.6415 10.894 78.6978 10.5523 78.5923C9.95671 78.4069 9.70171 77.8714 9.35761 77.387L8.96369 77.5987L8.92793 77.6257L8.82593 77.7166C9.14717 78.4791 9.86468 79.3588 10.6959 79.5612C11.9416 79.8662 12.7283 78.9747 12.2716 77.8603C12.6515 78.0544 12.7511 78.1929 13.3192 78.1823L13.2488 79.7981C13.4309 79.8943 13.607 80.0013 13.7764 80.1184C13.981 80.2633 14.0332 80.4064 14.3626 80.4157V75.7236H15.6083V79.78C15.9799 80.0263 16.4348 80.4093 16.7086 80.4175V75.7254H20.2844V76.845C17.1558 75.7043 17.0761 78.743 18.7603 80.2914C18.9397 80.248 19.2521 80.0762 19.3846 79.9929C18.7914 79.2169 17.7649 77.5841 19.867 77.5559C19.9045 77.9846 20.098 78.2093 20.3143 78.4515C20.6496 78.8281 20.5963 78.9102 21.3073 78.9066L21.3103 78.1002L22.645 78.0679L22.5753 79.7729C22.723 79.9201 22.9206 80.0075 23.0988 80.1248C23.3684 80.3008 23.3104 80.4093 23.685 80.4181V75.726H25.0918V79.8269C25.7619 80.1788 25.8369 80.431 26.1933 80.4064V75.7254H29.3881V76.8984C28.9719 76.8984 27.2778 76.8087 27.0562 76.9846C26.5667 77.3717 27.3077 78.482 27.5005 78.7002L28.0733 78.6591C28.0457 78.343 28.0223 78.1524 28.0944 77.8509L29.4315 77.8192L29.3893 79.8099C29.5651 79.9237 29.741 80.0122 29.9028 80.1242C30.142 80.2932 30.1414 80.4099 30.489 80.4175V75.7254C31.1385 75.7307 30.8138 75.6667 31.1162 75.9952C31.281 75.8744 31.4046 75.7283 31.6057 75.7189L31.8531 75.7776L31.9316 77.2052C31.3794 77.5313 31.3454 77.7248 31.9715 78.465C32.3133 78.8709 32.2523 78.8902 32.9516 78.8943V78.0732H34.2518L34.1856 79.8281C34.9617 80.1706 34.9476 80.4621 35.3287 80.3917V75.7277H37.133C37.1248 76.167 37.1793 76.9225 37.065 77.265C36.5175 77.2685 36.4255 77.1653 36.0849 77.6756C36.3827 78.2785 36.7039 78.6251 37.075 79.1096C37.2602 79.3512 37.4396 79.5495 37.6248 79.7917C37.8101 80.0339 38.0164 80.3084 38.2304 80.5025C38.4912 80.4081 38.5885 80.2908 38.8312 80.2128C38.697 79.8756 37.5451 78.9888 37.473 78.4656C38.4912 77.6943 38.2304 77.5319 38.2304 75.7272H39.3565C39.3318 75.3811 39.4309 75.723 39.0704 75.2392C38.9588 75.0972 38.8591 74.9464 38.772 74.7881C37.7485 74.7964 36.2707 74.8732 35.2953 74.7917C34.9301 74.7612 34.5883 74.211 34.6059 73.7946C34.6276 73.2614 35.3363 73.2034 35.3709 73.9588L35.8398 73.8556C35.9717 71.9031 33.5367 72.1846 33.8708 73.7565C33.9558 74.1582 34.2565 74.5289 34.4464 74.7911H32.9446C32.9745 75.0685 33.3696 75.4239 33.5308 75.7295L34.2342 75.733V77.1541H32.9446C32.9317 76.194 33.0085 75.821 32.4381 75.299C31.8156 74.7295 31.7347 74.7459 30.7153 74.7928C29.3043 74.8573 27.4408 74.8421 26.0221 74.7876C25.6798 73.6556 26.453 73.3447 27.5463 73.4438C28.68 73.5465 29.0628 73.9846 29.7076 74.3635C29.8377 74.2503 29.945 74.1512 30.0241 73.957C29.7346 73.7987 29.4379 73.4163 28.6759 73.0186C27.6061 72.4526 25.7865 72.2145 25.1405 73.0972C24.6211 73.8016 25.0209 74.2403 25.3105 74.7711Z" fill="black"/>
<path fill-rule="evenodd" clip-rule="evenodd" d="M17.2364 25.0348C17.5963 24.2459 18.7511 20.718 19.1867 19.5409C19.6897 18.1819 19.3432 17.7021 18.8555 16.6054C17.3953 13.3238 15.6384 9.71851 14.1002 6.40353C13.7321 5.61056 13.3012 4.5607 12.9079 3.86098C12.4835 3.86098 11.1452 5.26862 10.8597 5.69619C9.46279 7.79885 10.0039 9.70971 10.9834 11.6898L15.9614 22.3743C16.1572 22.8101 17.0271 24.7925 17.2364 25.0353" fill="#1A1A18"/>
<path fill-rule="evenodd" clip-rule="evenodd" d="M49.4204 25.0465C49.6273 24.8435 51.5946 20.4476 51.9129 19.7837C53.1685 17.1655 54.3749 14.4001 55.6253 11.8241C56.0649 10.9203 56.5292 10.0446 56.6119 8.87333C56.7567 6.82815 55.8047 5.43577 54.4095 4.32139C54.209 4.16127 54.0795 3.96948 53.8198 3.89147C53.6052 4.02637 52.7646 5.99354 52.5812 6.37126C50.9984 9.61234 49.4344 13.2505 47.8464 16.5379C47.3376 17.5907 46.9894 18.1614 47.4636 19.4851C47.9162 20.7485 49.105 23.972 49.4204 25.0465Z" fill="#1A1A18"/>
<path fill-rule="evenodd" clip-rule="evenodd" d="M17.1733 24.5797C17.3381 24.3545 18.0603 22.1862 18.1394 21.9551C18.456 21.0331 18.7719 20.1902 19.0908 19.2712C19.4801 18.1503 19 17.28 18.5685 16.4225C18.1705 15.6307 17.8064 14.7585 17.4149 13.9362L12.8032 4.11211C12.7974 4.10508 12.7839 4.08983 12.7739 4.07927C12.1795 4.4259 11.2756 5.3696 10.9016 5.97371C10.3575 6.87736 10.12 7.93278 10.2245 8.98253C10.3693 10.372 11.7873 12.9345 12.4058 14.3145C13.5506 16.8729 14.8133 19.4319 15.988 21.9932C16.3691 22.8249 16.8632 23.7557 17.1733 24.5797Z" fill="white"/>
<path fill-rule="evenodd" clip-rule="evenodd" d="M49.4869 24.5668C50.9313 21.3081 52.7309 17.6236 54.2603 14.3303C54.6642 13.4605 55.0306 12.6294 55.4532 11.769C56.3911 9.86403 57.0102 8.07809 55.7293 5.99655C55.2135 5.15784 54.5921 4.70974 53.8834 4.10563C53.7767 4.20182 48.8802 14.6459 48.1105 16.389C47.7001 17.3133 47.1667 18.0125 47.5594 19.2142C47.7652 19.8436 49.3356 24.3832 49.4869 24.5668Z" fill="white"/>
<path fill-rule="evenodd" clip-rule="evenodd" d="M40.3365 74.9413L40.9491 75.9971C41.2246 75.8006 41.3055 75.6733 41.5546 75.7167C41.7891 75.7572 41.6132 75.7167 41.7012 75.7754L41.7768 77.2018C41.2246 77.5279 41.1906 77.7214 41.8166 78.4616C42.1584 78.8675 42.0974 78.8868 42.7968 78.891V78.0698H44.097L44.0307 79.8247C44.8068 80.1672 44.7928 80.4587 45.1738 80.3883V75.7243H46.433V79.7713C46.593 79.9273 46.7683 79.9913 46.9541 80.1297C47.1499 80.2757 47.2255 80.4288 47.5315 80.4018V75.7232H49.3218C49.313 76.1625 49.3675 76.9179 49.2532 77.2604C48.7057 77.264 48.6136 77.1607 48.2731 77.671C48.5708 78.2739 48.8921 78.6206 49.2632 79.105C49.4484 79.3467 49.6278 79.5449 49.813 79.7872C49.9982 80.0294 50.2046 80.3039 50.4186 80.498C50.6794 80.4036 50.7773 80.2863 51.0194 80.2083C50.8852 79.871 49.7333 78.9842 49.6612 78.461C50.6794 77.6898 50.4186 77.5273 50.4186 75.7226H53.8771V76.6024C52.6461 76.5924 51.4784 76.532 51.3119 77.725C51.1865 78.6264 51.9052 79.813 52.4128 80.2904L53.05 80.0077C52.7886 79.6112 52.2627 79.0874 52.2762 78.3602C52.2915 77.525 53.1256 77.5437 53.866 77.5572L53.8455 79.8053C54.0213 79.9033 54.1585 79.9877 54.3514 80.1162C54.5653 80.2587 54.6234 80.4006 54.9528 80.4141L54.9487 75.7331L56.1082 75.7197C56.0772 75.3906 55.8198 75.315 55.5144 74.7877L42.7938 74.7818C42.8237 75.0598 43.2188 75.4153 43.38 75.7202L44.0835 75.7238V77.1449H42.7938C42.7798 76.0892 42.8407 75.7372 42.1918 75.2094C41.5921 74.7185 41.1912 74.5267 40.3318 74.9443" fill="black"/>
<path fill-rule="evenodd" clip-rule="evenodd" d="M31.8302 24.9755L31.6544 24.9702L31.7529 24.9948C31.9387 25.7321 32.1046 26.5075 32.2804 27.2858C32.3865 27.755 32.9839 29.1134 32.9686 29.3415C32.7928 29.0483 32.6292 28.6676 32.471 28.3257C32.3819 28.1327 32.3209 27.9614 32.2171 27.7579C32.0055 27.3433 30.7821 25.7638 30.6344 25.4119C30.6288 25.4225 30.6245 25.4337 30.6215 25.4453L30.5424 25.4951C30.5787 25.5174 30.5693 25.5039 30.6291 25.5954C31.0295 26.2089 31.4668 27.4406 32.23 28.5098C32.3783 28.7175 32.7617 29.2213 32.8379 29.4406C32.57 29.3134 31.9358 28.2723 31.2874 27.7521C30.9457 27.4782 29.7422 26.382 29.5487 26.3034L29.5458 26.3227C29.6109 26.4987 30.7886 27.7151 31.0254 28.0142C31.2851 28.3421 31.9463 28.8911 32.315 29.1873L32.7095 29.5779C32.3983 29.4987 31.5776 28.7679 30.7663 28.3884C30.4234 28.2283 28.9174 27.4723 28.6753 27.4652L28.6255 27.4805C29.3365 27.8154 30.3448 28.6864 31.6104 29.2471C31.808 29.3345 31.9346 29.3955 32.138 29.4817C32.7031 29.7245 32.5413 29.6254 32.5853 29.7685C32.0747 29.5603 31.1198 29.189 30.5383 29.0875C30.0001 28.9937 28.7392 28.8348 28.3142 28.6846C28.3142 28.8195 28.35 28.8019 28.2251 28.7644C29.0927 28.9116 30.0511 29.4377 31.3671 29.667C31.5653 29.7016 31.7628 29.7356 31.9727 29.7685C32.053 29.7808 32.2113 29.7978 32.2799 29.8166L32.519 29.9339C31.7013 29.8752 31.0312 29.7339 30.1889 29.7949C29.469 29.8471 28.7193 29.921 28.0047 29.9538L28 30.0289C28.5715 29.9837 29.6296 30.1145 30.2493 30.1527C31.0184 30.2008 31.9492 29.999 32.5823 30.0729C32.4264 30.2682 31.7142 30.3145 31.4686 30.3609C30.8319 30.4782 28.6606 31.1703 28.3165 31.4406L28.2855 31.5069C29.0505 31.331 29.7879 31.155 30.564 30.9791C31.2089 30.8348 32.1732 30.3169 32.6369 30.2711C32.4276 30.4858 31.9334 30.6354 31.6468 30.7726C31.2241 30.975 30.9797 31.0846 30.6309 31.3374L28.7972 32.6641C29.098 32.6055 30.4468 31.8524 30.8349 31.6588C31.2229 31.4653 31.465 31.2811 31.7622 31.0635C32.0167 30.8782 32.4657 30.528 32.7289 30.4184C32.6187 30.6066 32.7125 30.477 32.5501 30.6219C32.0225 31.0969 31.7048 31.2084 31.0119 31.9556L29.5464 33.6712L29.5564 33.7457L31.281 32.2248C32.0266 31.4987 32.1421 31.25 32.6539 30.7245C32.7846 30.5896 32.7066 30.6072 32.8749 30.5609C32.8162 30.7439 32.4059 31.2823 32.2781 31.4653C31.6983 32.2923 31.04 33.694 30.6701 34.6184L30.7358 34.6272C30.9251 34.2806 31.1256 34.0102 31.3308 33.6841C32.3332 32.0899 32.1087 32.5028 32.8666 30.8782C32.9645 30.667 32.8995 30.7192 33.0513 30.6735C32.8344 31.3503 32.5003 31.9726 32.3631 32.7204C32.2359 33.4125 31.978 34.4606 31.9422 35.141L31.9909 35.1656C32.1908 34.1099 32.7189 33.2055 32.9552 31.8448C32.9915 31.6354 33.107 30.8365 33.182 30.7016C33.2471 30.7984 33.0589 32.5234 33.0923 32.9433C33.151 33.6741 33.2629 34.6002 33.2483 35.3245H33.3415C33.267 33.8635 33.5959 33.3615 33.3819 31.2254L33.3696 30.8037C33.4124 30.6189 33.3256 30.7949 33.4282 30.6829C33.6498 31.2283 33.7055 32.2729 33.9746 32.9879L34.5672 34.565C34.7255 34.9756 34.7724 34.924 34.6739 35.1515C34.6903 35.1515 34.7149 35.1374 34.7231 35.1515L34.8187 35.1392C34.9553 35.0864 34.9248 35.0847 35.0028 35.0184C34.7577 35.0536 34.8269 35.1814 34.6968 34.5492L34.2946 32.7861C34.1059 31.9527 33.6182 30.9832 33.5584 30.6313C33.6815 30.6987 33.9916 31.4418 34.0637 31.6084C34.6012 32.8506 35.6282 33.9187 35.8909 34.541L35.9583 34.5111L34.9342 32.4407C34.5496 31.6729 33.879 30.938 33.7084 30.5321C33.9705 30.6735 34.6581 31.6723 35.2326 32.1961L36.9835 33.694L37.0281 33.6893C36.8282 33.3492 36.5591 33.1439 36.303 32.8236C36.1734 32.6606 36.0556 32.5585 35.9125 32.3943C35.7595 32.2184 35.6998 32.1228 35.5298 31.9556L34.6827 31.1597C34.532 31.0336 33.9007 30.5374 33.8462 30.3937C34.1035 30.4272 34.9852 31.1926 35.7519 31.5603C36.1206 31.7363 36.4184 31.8729 36.7877 32.0453C37.099 32.1902 37.6026 32.4559 37.9086 32.5286L37.8939 32.487L36.0181 31.2893C35.3526 30.9002 34.6578 30.5636 33.94 30.2829C34.0285 30.2142 33.8028 30.1333 34.4259 30.3603C34.6018 30.4242 34.7712 30.4876 34.94 30.5509C35.3117 30.6893 35.5989 30.8019 36.0181 30.8741C36.8387 31.0143 37.6289 31.1585 38.4215 31.2993C38.5798 31.3321 38.4801 31.3345 38.4754 31.1937C38.0979 31.2031 36.7221 30.6999 36.2795 30.5556C35.6206 30.3415 34.4705 30.27 33.9658 30.0576C34.2266 29.9802 35.623 30.2195 36.1488 30.1802C36.9648 30.1216 37.7603 30.0512 38.5727 30.0195V29.9568C37.7954 29.894 37.0005 29.8559 36.2174 29.8008C35.807 29.7726 34.1317 29.9714 33.9664 29.8477C34.229 29.6659 35.3586 29.6277 36.2525 29.287C36.9331 29.0277 37.6307 28.7978 38.3042 28.5022L38.3394 28.4436C37.5527 28.6154 36.7936 28.7955 36.004 28.9773C35.2144 29.1591 34.6516 29.5093 33.9212 29.7005L34.1891 29.5087C36.4102 28.4066 35.4102 28.9702 37.7356 27.3556L37.677 27.3421C37.4859 27.3544 35.9401 28.1808 35.6529 28.3392C34.9142 28.7403 34.2683 29.3333 33.8157 29.5585C33.923 29.3515 34.5062 28.9351 34.695 28.7884C34.9881 28.5644 35.2994 28.3022 35.5157 28.026C35.7654 27.7069 36.0081 27.4682 36.2778 27.1497C36.4196 26.9831 36.4929 26.894 36.6582 26.7092C36.7821 26.5763 36.8914 26.4304 36.9841 26.274C36.7496 26.3497 35.4301 27.6195 35.2173 27.7878C34.6229 28.257 33.9013 29.3585 33.6733 29.406C33.7149 29.1714 34.5625 28.1826 34.8515 27.5356C35.0467 27.0981 35.759 25.7538 35.8117 25.4013L35.7021 25.5186C35.6833 25.5415 35.6435 25.596 35.6288 25.6201L35.1675 26.3315C34.2688 27.7116 34.4418 27.4787 33.7706 28.8641C33.5414 29.3368 33.6475 29.2594 33.4816 29.3098C33.6897 28.6617 34.0449 27.9784 34.1721 27.2711C34.3034 26.5397 34.5139 25.6734 34.5912 24.9485L34.5326 24.9819C34.0502 25.7749 33.3983 29.1796 33.3503 29.2688C33.2875 29.1263 33.3338 28.9104 33.3503 28.7374C33.5062 27.2553 33.4587 26.4072 33.2828 24.8664H33.2195C33.1099 25.3872 33.1123 26.5221 33.0706 27.1075C33.0413 27.5268 33.2623 29.1175 33.1293 29.3016C32.9669 28.9738 32.9083 27.8911 32.573 26.9949L31.8302 24.9755Z" fill="black"/>
<path fill-rule="evenodd" clip-rule="evenodd" d="M33.3392 35.3216L33.6487 35.2724C33.8164 35.1797 33.7114 34.8184 34.2003 35.1005C34.4207 35.2272 34.3351 35.1375 34.6693 35.1504C34.7678 34.921 34.7209 34.9744 34.5626 34.5639L33.9723 32.985C33.7032 32.27 33.6475 31.2254 33.426 30.68C33.3263 30.792 33.4131 30.616 33.3673 30.8008L33.3796 31.2225C33.5936 33.3586 33.2624 33.8618 33.3392 35.3216Z" fill="white"/>
<path fill-rule="evenodd" clip-rule="evenodd" d="M28.3125 31.4382C28.6566 31.1679 30.8278 30.4775 31.4645 30.3585C31.7124 30.3121 32.4247 30.2658 32.5782 30.0705C31.9469 29.9966 31.0143 30.1983 30.2452 30.1503C29.6255 30.1121 28.5674 29.9813 27.9959 30.0265L27.9824 30.3731L28.2544 30.5315C28.2931 30.874 28.2316 30.833 28.0786 31.0183C28.1413 31.3051 28.0739 31.3632 28.313 31.4382" fill="white"/>
<path fill-rule="evenodd" clip-rule="evenodd" d="M38.5741 29.9544C38.5495 29.8306 38.5882 29.6611 38.5196 29.5438C38.4399 29.4025 38.1679 29.4007 38.3179 29.0676C38.3179 29.0676 38.5847 28.7937 38.3045 28.5022C37.6321 28.7954 36.9345 29.03 36.2527 29.2869C35.3588 29.6277 34.2292 29.6658 33.9666 29.8476C34.1319 29.9714 35.8066 29.7726 36.2176 29.8007C37.0007 29.8559 37.7956 29.894 38.5729 29.9567" fill="white"/>
<path fill-rule="evenodd" clip-rule="evenodd" d="M31.8303 24.9756L32.5789 26.9868C32.9171 27.8829 32.9757 28.9657 33.1352 29.2953C33.2694 29.1111 33.0484 27.5205 33.0765 27.1011C33.1182 26.5146 33.1158 25.3809 33.2254 24.86C33.2254 24.6037 33.1082 24.6999 32.8268 24.7158C32.7096 24.8665 32.6785 25.1128 32.4024 24.9938C32.294 24.9463 32.1415 24.6419 31.8291 24.9773" fill="white"/>
<path fill-rule="evenodd" clip-rule="evenodd" d="M37.0281 33.6876C37.5041 33.3427 37.1594 33.416 37.3124 32.9416C37.8025 32.8524 37.6606 33.0418 37.9086 32.5269C37.6026 32.4518 37.099 32.1885 36.7878 32.0436C36.4185 31.8712 36.1207 31.7357 35.7519 31.5586C34.9852 31.1908 34.1035 30.4254 33.8462 30.392C33.9007 30.5357 34.532 31.0319 34.6827 31.158L35.5298 31.9539C35.6998 32.121 35.7596 32.2154 35.9126 32.3926C36.0556 32.5568 36.1734 32.6589 36.303 32.8219C36.5574 33.1421 36.8305 33.3498 37.0281 33.6876Z" fill="white"/>
<path fill-rule="evenodd" clip-rule="evenodd" d="M29.5544 33.7445C29.8985 34.1896 29.83 33.7814 30.2022 33.992C30.3874 34.2336 30.2122 34.2008 30.3194 34.3644C30.3652 34.4348 30.558 34.5327 30.6682 34.6172C31.0381 33.6917 31.6964 32.2911 32.2762 31.4641C32.4051 31.2811 32.8137 30.7427 32.8729 30.5597C32.7047 30.6048 32.7827 30.5884 32.6519 30.7233C32.1402 31.2512 32.0247 31.4975 31.279 32.2236L29.5544 33.7445Z" fill="white"/>
<path fill-rule="evenodd" clip-rule="evenodd" d="M36.9893 26.2683C36.6493 25.7316 36.5655 26.1316 36.3064 25.9052C36.0321 25.6706 36.4125 25.5428 35.8169 25.3956C35.7642 25.7475 35.0519 27.0923 34.8567 27.5299C34.5677 28.175 33.7201 29.1674 33.6785 29.4003C33.9065 29.3528 34.6281 28.2513 35.2225 27.7821C35.4353 27.6138 36.7572 26.3439 36.9893 26.2683Z" fill="white"/>
<path fill-rule="evenodd" clip-rule="evenodd" d="M28.6748 27.4635C28.9169 27.4706 30.4229 28.226 30.7658 28.3867C31.5771 28.7662 32.3978 29.497 32.709 29.5762L32.3145 29.1856C31.9446 28.8894 31.2834 28.3404 31.0249 28.0125C30.7904 27.7134 29.6104 26.4981 29.5453 26.321C29.0412 26.5691 29.3747 26.6764 29.2675 26.9263C29.1051 27.304 28.8137 26.7503 28.676 27.4635" fill="white"/>
<path fill-rule="evenodd" clip-rule="evenodd" d="M31.989 35.1644C32.6801 35.1644 32.135 34.9603 32.7194 35.0137C32.9762 35.3292 32.6796 35.2483 33.247 35.3233C33.2617 34.599 33.1479 33.6729 33.0911 32.9421C33.0577 32.5222 33.2458 30.7972 33.1808 30.7004C33.1057 30.8353 32.9902 31.6342 32.9539 31.8436C32.7194 33.2043 32.1918 34.1093 31.9896 35.1644" fill="white"/>
<path fill-rule="evenodd" clip-rule="evenodd" d="M35.9532 34.5083C36.3424 34.4883 36.2662 34.1352 36.336 33.9423C36.6619 33.859 36.9016 34.0596 36.9808 33.6924L35.2263 32.1933C34.65 31.6695 33.9624 30.6683 33.7021 30.5293C33.8739 30.9352 34.5433 31.6701 34.9279 32.4379L35.9532 34.5083Z" fill="white"/>
<path fill-rule="evenodd" clip-rule="evenodd" d="M29.5466 26.3039C29.7401 26.3825 30.9435 27.4769 31.2853 27.7526C31.9336 28.2728 32.5679 29.3139 32.8358 29.4412C32.7596 29.2218 32.3762 28.718 32.2279 28.5104C31.4659 27.4412 31.0274 26.2095 30.627 25.596C30.5684 25.5045 30.5766 25.518 30.5402 25.4957C30.0713 25.6834 30.4154 25.6435 30.2612 25.935C30.144 26.1596 29.9951 26.0118 29.7284 26.0423C29.5953 26.2259 29.6463 26.0799 29.5466 26.3039Z" fill="white"/>
<path fill-rule="evenodd" clip-rule="evenodd" d="M37.8939 32.4852C38.2456 32.2031 37.9256 32.1655 37.9918 31.7814C38.3687 31.457 38.1858 31.8734 38.4227 31.2975C37.629 31.1567 36.8399 31.0124 36.0192 30.8723C35.6001 30.8001 35.3158 30.6875 34.9412 30.5491C34.7724 30.4857 34.6024 30.4224 34.4271 30.3585C33.804 30.1315 34.0297 30.2124 33.9412 30.2811C34.6587 30.5625 35.3531 30.8996 36.0181 31.2893L37.8939 32.4852Z" fill="white"/>
<path fill-rule="evenodd" clip-rule="evenodd" d="M28.3125 28.6835C28.7375 28.8337 29.9984 28.9926 30.5365 29.0865C31.1227 29.1879 32.0729 29.5592 32.5835 29.7674C32.5396 29.6243 32.7008 29.7234 32.1363 29.4806C31.934 29.3938 31.8074 29.3328 31.6087 29.246C30.3431 28.6853 29.3348 27.8143 28.6237 27.4794C28.3512 27.88 28.5569 27.7023 28.5985 27.985C28.6443 28.297 28.4573 28.2243 28.2539 28.3205L28.1606 28.6138L28.3125 28.6835Z" fill="white"/>
<path fill-rule="evenodd" clip-rule="evenodd" d="M30.7333 34.626C31.1577 34.9228 31.0123 34.4278 31.3781 34.6847C31.5745 34.8225 31.4021 34.8383 31.561 34.9867C31.6231 35.0454 31.8271 35.0852 31.9391 35.1392C31.9748 34.4588 32.2322 33.4107 32.36 32.7187C32.4971 31.9709 32.8289 31.3486 33.0482 30.6717C32.8963 30.7175 32.9614 30.6653 32.8635 30.8764C32.1056 32.5011 32.3301 32.0882 31.3277 33.6823C31.1225 34.0084 30.922 34.2788 30.7327 34.6254" fill="white"/>
<path fill-rule="evenodd" clip-rule="evenodd" d="M28.2812 31.5047C28.1253 32.0325 28.5743 31.6542 28.6499 32.0325C28.6945 32.249 28.3533 32.4765 28.7929 32.6642L30.6266 31.3375C30.9783 31.0847 31.2198 30.9751 31.6425 30.7727C31.9297 30.6355 32.4233 30.4859 32.6326 30.2712C32.1689 30.317 31.2022 30.8349 30.5598 30.9792C29.7836 31.1551 29.0462 31.3276 28.2812 31.507" fill="white"/>
<path fill-rule="evenodd" clip-rule="evenodd" d="M33.29 24.8583C33.4659 26.4009 33.5134 27.249 33.3575 28.7293C33.3393 28.9024 33.293 29.1182 33.3575 29.2607C33.4055 29.1716 34.0574 25.7669 34.5398 24.9739C34.4367 24.7979 34.5732 24.8959 34.3886 24.819C34.1494 24.7199 34.1084 25.0666 33.8247 24.9622C33.6857 24.849 33.7133 24.7862 33.6001 24.724C33.307 24.5704 33.3246 24.7522 33.2918 24.8566" fill="white"/>
<path fill-rule="evenodd" clip-rule="evenodd" d="M35.8172 25.3956C35.4403 25.0044 35.5118 25.3833 35.1999 25.3006C34.8793 25.2155 35.1472 24.812 34.5967 24.9422C34.5194 25.6671 34.3089 26.5334 34.1776 27.2648C34.0504 27.9721 33.6952 28.6554 33.4871 29.3035C33.653 29.2531 33.5457 29.3305 33.7761 28.8578C34.4473 27.4724 34.2743 27.7053 35.173 26.3252L35.6343 25.6138C35.6507 25.5897 35.6888 25.5352 35.7076 25.5123L35.8172 25.3956Z" fill="white"/>
<path fill-rule="evenodd" clip-rule="evenodd" d="M38.4764 31.1915C38.4055 30.6226 38.2859 30.7962 38.2935 30.605C38.307 30.2624 38.4905 30.6014 38.5737 30.0143C37.7613 30.046 36.9658 30.114 36.1498 30.175C35.6222 30.2143 34.2277 29.975 33.9668 30.0525C34.4715 30.2648 35.6216 30.3363 36.2805 30.5504C36.7231 30.6947 38.0978 31.1956 38.4764 31.1885" fill="white"/>
<path fill-rule="evenodd" clip-rule="evenodd" d="M38.3396 28.4396C38.135 27.9545 38.0096 28.1604 37.9158 27.9569C37.8448 27.802 38.0242 27.5973 37.9222 27.4513C37.7704 27.2355 37.9462 27.3651 37.7358 27.3516C35.4103 28.9663 36.4104 28.4026 34.1893 29.5047L33.9214 29.6965C34.6518 29.5053 35.2175 29.1575 36.0042 28.9733C36.7908 28.7891 37.5529 28.6114 38.3396 28.4396Z" fill="white"/>
<path fill-rule="evenodd" clip-rule="evenodd" d="M28.0028 29.9516C28.7174 29.9188 29.4683 29.8449 30.187 29.7927C31.0294 29.734 31.6994 29.8712 32.5172 29.9317L32.278 29.8144C32.2094 29.7956 32.0511 29.7786 31.9708 29.7663C31.761 29.7334 31.5605 29.6994 31.3653 29.6648C30.0493 29.4355 29.0908 28.9094 28.2232 28.7621C28.0814 28.8032 28.1517 28.7311 28.106 28.873C27.9888 29.2102 28.3041 28.8343 28.2666 29.4654C28.1248 29.5768 28.1447 29.5158 27.9946 29.6097L28.0028 29.9516Z" fill="white"/>
<path fill-rule="evenodd" clip-rule="evenodd" d="M34.9974 35.0177C35.2365 34.8535 35.0273 34.8465 35.2565 34.6248C35.5941 34.5591 35.4751 34.6658 35.6668 34.6834C35.7495 34.6899 35.9863 34.6125 35.8884 34.5409C35.6258 33.9204 34.5988 32.8523 34.0612 31.6083C33.9891 31.4418 33.679 30.6986 33.5559 30.6312C33.6145 30.9831 34.1034 31.9526 34.2922 32.786L34.6943 34.5491C34.8215 35.182 34.7529 35.0541 35.0003 35.0183" fill="white"/>
<path fill-rule="evenodd" clip-rule="evenodd" d="M28.7931 32.6636C28.6999 32.9844 29.0024 32.8982 29.2715 32.9915C29.3758 33.3229 29.1917 33.3575 29.3231 33.5193C29.4544 33.6812 29.401 33.5985 29.544 33.6677L31.0096 31.9522C31.7024 31.2044 32.0196 31.0935 32.5477 30.6184C32.7101 30.4718 32.6163 30.6032 32.7265 30.4149C32.4663 30.5252 32.0143 30.8753 31.7599 31.0601C31.4627 31.2777 31.2182 31.463 30.8325 31.6554C30.4468 31.8478 29.0956 32.6014 28.7949 32.6607" fill="white"/>
<path fill-rule="evenodd" clip-rule="evenodd" d="M30.631 25.4101C30.781 25.762 32.0044 27.3456 32.2137 27.7562C32.3175 27.9597 32.3784 28.131 32.4675 28.3239C32.6258 28.6659 32.7917 29.0477 32.9652 29.3398C32.9781 29.1116 32.3831 27.7515 32.277 27.284C32.1011 26.5057 31.9353 25.7304 31.7494 24.9931L31.6509 24.9685C31.2066 25.0412 31.6457 25.4846 31.0964 25.365C30.8355 25.3063 30.9827 25.1568 30.6274 25.4084" fill="white"/>
<path fill-rule="evenodd" clip-rule="evenodd" d="M37.678 27.338C37.7818 27.199 37.7155 27.3069 37.7519 27.1292C37.2489 26.7392 37.6493 27.0582 37.2167 26.8746C37.1111 26.4353 37.3773 26.5227 36.9892 26.2682C36.8965 26.4245 36.7872 26.5705 36.6633 26.7034C36.498 26.8881 36.4247 26.9773 36.2828 27.1439C36.0103 27.4623 35.7676 27.701 35.5208 28.0201C35.3045 28.2964 34.9932 28.5585 34.7001 28.7826C34.5102 28.9292 33.9269 29.3456 33.8208 29.5527C34.2733 29.3274 34.9193 28.7345 35.658 28.3333C35.9452 28.1767 37.491 27.3503 37.6821 27.3362" fill="white"/>
</svg>
